[gd_scene load_steps=3 format=2]

[ext_resource path="res://Scripts/PlayerSpawner.gd" type="Script" id=1]
[ext_resource path="res://Scenes/GameObjects/PlayerBody.tscn" type="PackedScene" id=2]

[node name="PlayerSpawner" type="Node2D"]
script = ExtResource( 1 )
player_resource = ExtResource( 2 )
